AXI4-Lite Multi-Channel PWM Generator/verification/PWM Generator Verification/PWM Generator Verification.sim/sim_1/behav/xsim/pwm_core_tb.vcd
$date
   Fri Jun 20 23:09:12 2025
$end
$version
  2022.2
$end
$timescale
  1ps
$end
$scope module pwm_core_tb $end
$var reg 1 ! clk $end
$var reg 1 " resetn $end
$var reg 16 # i_prescale [15:0] $end
$var reg 64 $ i_period [63:0] $end
$var reg 64 % i_duty [63:0] $end
$var reg 1 & i_enable $end
$var reg 4 ' o_pwm_out [3:0] $end
$scope module dut $end
$var wire 1 ( i_clk $end
$var wire 1 ) i_resetn $end
$var wire 16 * i_prescale [15:0] $end
$var wire 64 + i_period [63:0] $end
$var wire 64 , i_duty [63:0] $end
$var wire 1 - i_enable $end
$var reg 4 ' o_pwm_out [3:0] $end
$var reg 1 . tick $end
$var reg 16 / prescale_cnt [15:0] $end
$var reg 16 0 \gen_pwm_channel[0].counter  [15:0] $end
$var reg 1 1 \gen_pwm_channel[0].pwm_reg  $end
$var reg 16 2 \gen_pwm_channel[1].counter  [15:0] $end
$var reg 1 3 \gen_pwm_channel[1].pwm_reg  $end
$var reg 16 4 \gen_pwm_channel[2].counter  [15:0] $end
$var reg 1 5 \gen_pwm_channel[2].pwm_reg  $end
$var reg 16 6 \gen_pwm_channel[3].counter  [15:0] $end
$var reg 1 7 \gen_pwm_channel[3].pwm_reg  $end
$upscope $end
$scope begin Block93_8 $end
$var reg 32 8 ch [31:0] $end
$upscope $end
$scope begin Block106_9 $end
$var reg 32 9 ch [31:0] $end
$upscope $end
$scope task monitor_pwm $end
$var reg 32 : channel [31:0] $end
$var reg 32 ; cycles [31:0] $end
$var reg 32 < high_count [31:0] $end
$var reg 32 = low_count [31:0] $end
$var real 32 > duty_percent $end
$scope begin Block56_6 $end
$var reg 32 ? i [31:0] $end
$upscope $end
$upscope $end
$upscope $end
$enddefinitions $end
#0
$dumpvars
0!
0"
b0 #
b0 $
b0 %
0&
b0 '
0(
0)
b0 *
b0 +
b0 ,
0-
0.
b0 /
b0 0
01
b0 2
03
b0 4
05
b0 6
07
b0 8
b0 9
b0 :
b0 ;
b0 <
b0 =
r0 >
b0 ?
$end
#5000
1!
1(
#10000
0!
0(
#15000
1!
1(
#20000
0!
1"
b100 #
b1001100110011001 $
b101000100101 %
1&
0(
1)
b100 *
b1001100110011001 +
b101000100101 ,
1-
b100 8
#25000
1!
1(
b1 /
#30000
0!
0(
#35000
1!
1(
b10 /
#40000
0!
0(
#45000
1!
1(
b11 /
#50000
0!
0(
#55000
1!
1(
b100 /
#60000
0!
0(
#65000
1!
1(
1.
b0 /
#70000
0!
0(
#75000
1!
b111 '
1(
0.
b1 /
b1 0
11
b1 2
13
b1 4
15
b1 6
#80000
0!
0(
#85000
1!
1(
b10 /
#90000
0!
0(
#95000
1!
1(
b11 /
#100000
0!
0(
#105000
1!
1(
b100 /
#110000
0!
0(
#115000
1!
1(
1.
b0 /
#120000
0!
0(
#125000
1!
1(
0.
b1 /
b10 0
b10 2
b10 4
b10 6
#130000
0!
0(
#135000
1!
1(
b10 /
#140000
0!
0(
#145000
1!
1(
b11 /
#150000
0!
0(
#155000
1!
1(
b100 /
#160000
0!
0(
#165000
1!
1(
1.
b0 /
#170000
0!
0(
#175000
1!
b101 '
1(
0.
b1 /
b11 0
b11 2
03
b11 4
b11 6
#180000
0!
0(
#185000
1!
1(
b10 /
#190000
0!
0(
#195000
1!
1(
b11 /
#200000
0!
0(
#205000
1!
1(
b100 /
#210000
0!
0(
#215000
1!
1(
1.
b0 /
#220000
0!
0(
#225000
1!
1(
0.
b1 /
b100 0
b100 2
b100 4
b100 6
#230000
0!
0(
#235000
1!
1(
b10 /
#240000
0!
0(
#245000
1!
1(
b11 /
#250000
0!
0(
#255000
1!
1(
b100 /
#260000
0!
0(
#265000
1!
1(
1.
b0 /
#270000
0!
0(
#275000
1!
1(
0.
b1 /
b101 0
b101 2
b101 4
b101 6
#280000
0!
0(
#285000
1!
1(
b10 /
#290000
0!
0(
#295000
1!
1(
b11 /
#300000
0!
0(
#305000
1!
1(
b100 /
#310000
0!
0(
#315000
1!
1(
1.
b0 /
#320000
0!
0(
#325000
1!
b100 '
1(
0.
b1 /
b110 0
01
b110 2
b110 4
b110 6
#330000
0!
0(
#335000
1!
1(
b10 /
#340000
0!
0(
#345000
1!
1(
b11 /
#350000
0!
0(
#355000
1!
1(
b100 /
#360000
0!
0(
#365000
1!
1(
1.
b0 /
#370000
0!
0(
#375000
1!
1(
0.
b1 /
b111 0
b111 2
b111 4
b111 6
#380000
0!
0(
#385000
1!
1(
b10 /
#390000
0!
0(
#395000
1!
1(
b11 /
#400000
0!
0(
#405000
1!
1(
b100 /
#410000
0!
0(
#415000
1!
1(
1.
b0 /
#420000
0!
0(
#425000
1!
1(
0.
b1 /
b1000 0
b1000 2
b1000 4
b1000 6
#430000
0!
0(
#435000
1!
1(
b10 /
#440000
0!
0(
#445000
1!
1(
b11 /
#450000
0!
0(
#455000
1!
1(
b100 /
#460000
0!
0(
#465000
1!
1(
1.
b0 /
#470000
0!
0(
#475000
1!
1(
0.
b1 /
b1001 0
b1001 2
b1001 4
b1001 6
#480000
0!
0(
#485000
1!
1(
b10 /
#490000
0!
0(
#495000
1!
1(
b11 /
#500000
0!
0(
#505000
1!
1(
b100 /
#510000
0!
0(
#515000
1!
1(
1.
b0 /
#520000
0!
0(
#525000
1!
1(
0.
b1 /
b0 0
b0 2
b0 4
b0 6
#530000
0!
0(
#535000
1!
1(
b10 /
#540000
0!
0(
#545000
1!
1(
b11 /
#550000
0!
0(
#555000
1!
1(
b100 /
#560000
0!
0(
#565000
1!
1(
1.
b0 /
#570000
0!
0(
#575000
1!
b111 '
1(
0.
b1 /
b1 0
11
b1 2
13
b1 4
b1 6
#580000
0!
0(
#585000
1!
1(
b10 /
#590000
0!
0(
#595000
1!
1(
b11 /
#600000
0!
0(
#605000
1!
1(
b100 /
#610000
0!
0(
#615000
1!
1(
1.
b0 /
#620000
0!
0(
#625000
1!
1(
0.
b1 /
b10 0
b10 2
b10 4
b10 6
#630000
0!
0(
#635000
1!
1(
b10 /
#640000
0!
0(
#645000
1!
1(
b11 /
#650000
0!
0(
#655000
1!
1(
b100 /
#660000
0!
0(
#665000
1!
1(
1.
b0 /
#670000
0!
0(
#675000
1!
b101 '
1(
0.
b1 /
b11 0
b11 2
03
b11 4
b11 6
#680000
0!
0(
#685000
1!
1(
b10 /
#690000
0!
0(
#695000
1!
1(
b11 /
#700000
0!
0(
#705000
1!
1(
b100 /
#710000
0!
0(
#715000
1!
1(
1.
b0 /
#720000
0!
0(
#725000
1!
1(
0.
b1 /
b100 0
b100 2
b100 4
b100 6
#730000
0!
0(
#735000
1!
1(
b10 /
#740000
0!
0(
#745000
1!
1(
b11 /
#750000
0!
0(
#755000
1!
1(
b100 /
#760000
0!
0(
#765000
1!
1(
1.
b0 /
#770000
0!
0(
#775000
1!
1(
0.
b1 /
b101 0
b101 2
b101 4
b101 6
#780000
0!
0(
#785000
1!
1(
b10 /
#790000
0!
0(
#795000
1!
1(
b11 /
#800000
0!
0(
#805000
1!
1(
b100 /
#810000
0!
0(
#815000
1!
1(
1.
b0 /
#820000
0!
0(
#825000
1!
b100 '
1(
0.
b1 /
b110 0
01
b110 2
b110 4
b110 6
#830000
0!
0(
#835000
1!
1(
b10 /
#840000
0!
0(
#845000
1!
1(
b11 /
#850000
0!
0(
#855000
1!
1(
b100 /
#860000
0!
0(
#865000
1!
1(
1.
b0 /
#870000
0!
0(
#875000
1!
1(
0.
b1 /
b111 0
b111 2
b111 4
b111 6
#880000
0!
0(
#885000
1!
1(
b10 /
#890000
0!
0(
#895000
1!
1(
b11 /
#900000
0!
0(
#905000
1!
1(
b100 /
#910000
0!
0(
#915000
1!
1(
1.
b0 /
#920000
0!
0(
#925000
1!
1(
0.
b1 /
b1000 0
b1000 2
b1000 4
b1000 6
#930000
0!
0(
#935000
1!
1(
b10 /
#940000
0!
0(
#945000
1!
1(
b11 /
#950000
0!
0(
#955000
1!
1(
b100 /
#960000
0!
0(
#965000
1!
1(
1.
b0 /
#970000
0!
0(
#975000
1!
1(
0.
b1 /
b1001 0
b1001 2
b1001 4
b1001 6
#980000
0!
0(
#985000
1!
1(
b10 /
#990000
0!
0(
#995000
1!
1(
b11 /
